{
  "top_chart_genre":"ambient",
  "top_chart_kind":"top",
  "bg": "file:///android_asset/bg.jpg",
  "ui_top_chart":2,
  "ui_genre":1,
  "ui_my_music":1,
  "ui_playlist":2,
  "ui_detail":1,
  "ui_search":1
}